…
# Print the first rows of the data
comics
```

```
## # A tibble: 23,272 x 16
##    publisher page_id   name                                    urlslug
##       <fctr>  <fctr> <fctr>                                     <fctr>
##  1    Marvel    1678   1678             "\\/Spider-Man_(Peter_Parker)"
##  2    Marvel    7139   7139       "\\/Captain_America_(Steven_Rogers)"
##  3    Marvel   64786  64786 "\\/Wolverine_(James_%22Logan%22_Howlett)"
##  4    Marvel    1868   1868   "\\/Iron_Man_(Anthony_%22Tony%22_Stark)"
##  5    Marvel    2460   2460                   "\\/Thor_(Thor_Odinson)"
##  6    Marvel    2458   2458            "\\/Benjamin_Grimm_(Earth-616)"
##  7    Marvel    2166   2166             "\\/Reed_Richards_(Earth-616)"
##  8    Marvel    1833   1833            "\\/Hulk_(Robert_Bruce_Banner)"
##  9    Marvel   29481  29481             "\\/Scott_Summers_(Earth-616)"
## 10    Marvel    1837   1837            "\\/Jonathan_Storm_(Earth-616)"
## # ... with 23,262 more rows, and 12 more variables: id <fctr>,
## #   align <fctr>, eye <fctr>, hair <fctr>, gender <fctr>, gsm <fctr>,
## #   alive <fctr>, appearances <int>, first_appear <fctr>, month <chr>,
## #   year <int>, date <date>
```
…
